%YAML 1.1
%TAG !u! tag:unity3d.com,2011:
--- !u!1 &6642964457043802146
GameObject:
  m_ObjectHideFlags: 0
  m_CorrespondingSourceObject: {fileID: 0}
  m_PrefabInstance: {fileID: 0}
  m_PrefabAsset: {fileID: 0}
  serializedVersion: 6
  m_Component:
  - component: {fileID: 6047818754843091020}
  - component: {fileID: 4346298414302522849}
  m_Layer: 31
  m_Name: floor
  m_TagString: Untagged
  m_Icon: {fileID: 0}
  m_NavMeshLayer: 0
  m_StaticEditorFlags: 0
  m_IsActive: 1
--- !u!4 &6047818754843091020
Transform:
  m_ObjectHideFlags: 0
  m_CorrespondingSourceObject: {fileID: 0}
  m_PrefabInstance: {fileID: 0}
  m_PrefabAsset: {fileID: 0}
  m_GameObject: {fileID: 6642964457043802146}
  m_LocalRotation: {x: 0, y: 0, z: 0, w: 1}
  m_LocalPosition: {x: 0, y: 0, z: 0}
  m_LocalScale: {x: 1, y: 1, z: 1}
  m_Children:
  - {fileID: 5934154205714321664}
  m_Father: {fileID: 0}
  m_RootOrder: 0
  m_LocalEulerAnglesHint: {x: 0, y: 0, z: 0}
--- !u!156049354 &4346298414302522849
Grid:
  m_ObjectHideFlags: 0
  m_CorrespondingSourceObject: {fileID: 0}
  m_PrefabInstance: {fileID: 0}
  m_PrefabAsset: {fileID: 0}
  m_GameObject: {fileID: 6642964457043802146}
  m_Enabled: 1
  m_CellSize: {x: 1, y: 1, z: 0}
  m_CellGap: {x: 0, y: 0, z: 0}
  m_CellLayout: 0
  m_CellSwizzle: 0
--- !u!1 &8235977834838167665
GameObject:
  m_ObjectHideFlags: 0
  m_CorrespondingSourceObject: {fileID: 0}
  m_PrefabInstance: {fileID: 0}
  m_PrefabAsset: {fileID: 0}
  serializedVersion: 6
  m_Component:
  - component: {fileID: 5934154205714321664}
  - component: {fileID: 6030731915600392742}
  - component: {fileID: 2048104663951810763}
  m_Layer: 31
  m_Name: Layer1
  m_TagString: Untagged
  m_Icon: {fileID: 0}
  m_NavMeshLayer: 0
  m_StaticEditorFlags: 0
  m_IsActive: 1
--- !u!4 &5934154205714321664
Transform:
  m_ObjectHideFlags: 0
  m_CorrespondingSourceObject: {fileID: 0}
  m_PrefabInstance: {fileID: 0}
  m_PrefabAsset: {fileID: 0}
  m_GameObject: {fileID: 8235977834838167665}
  m_LocalRotation: {x: -0, y: -0, z: -0, w: 1}
  m_LocalPosition: {x: 0, y: 0, z: 0}
  m_LocalScale: {x: 1, y: 1, z: 1}
  m_Children: []
  m_Father: {fileID: 6047818754843091020}
  m_RootOrder: 0
  m_LocalEulerAnglesHint: {x: 0, y: 0, z: 0}
--- !u!1839735485 &6030731915600392742
Tilemap:
  m_ObjectHideFlags: 0
  m_CorrespondingSourceObject: {fileID: 0}
  m_PrefabInstance: {fileID: 0}
  m_PrefabAsset: {fileID: 0}
  m_GameObject: {fileID: 8235977834838167665}
  m_Enabled: 1
  m_Tiles:
  - first: {x: -2, y: -10, z: 0}
    second:
      m_TileIndex: 63
      m_TileSpriteIndex: 63
      m_TileMatrixIndex: 0
      m_TileColorIndex: 0
      m_ObjectToInstantiate: {fileID: 0}
      m_TileFlags: 1
      m_ColliderType: 1
  - first: {x: -1, y: -10, z: 0}
    second:
      m_TileIndex: 64
      m_TileSpriteIndex: 64
      m_TileMatrixIndex: 0
      m_TileColorIndex: 0
      m_ObjectToInstantiate: {fileID: 0}
      m_TileFlags: 1
      m_ColliderType: 1
  - first: {x: 0, y: -10, z: 0}
    second:
      m_TileIndex: 65
      m_TileSpriteIndex: 65
      m_TileMatrixIndex: 0
      m_TileColorIndex: 0
      m_ObjectToInstantiate: {fileID: 0}
      m_TileFlags: 1
      m_ColliderType: 1
  - first: {x: 1, y: -10, z: 0}
    second:
      m_TileIndex: 66
      m_TileSpriteIndex: 66
      m_TileMatrixIndex: 0
      m_TileColorIndex: 0
      m_ObjectToInstantiate: {fileID: 0}
      m_TileFlags: 1
      m_ColliderType: 1
  - first: {x: 2, y: -10, z: 0}
    second:
      m_TileIndex: 67
      m_TileSpriteIndex: 67
      m_TileMatrixIndex: 0
      m_TileColorIndex: 0
      m_ObjectToInstantiate: {fileID: 0}
      m_TileFlags: 1
      m_ColliderType: 1
  - first: {x: 3, y: -10, z: 0}
    second:
      m_TileIndex: 68
      m_TileSpriteIndex: 68
      m_TileMatrixIndex: 0
      m_TileColorIndex: 0
      m_ObjectToInstantiate: {fileID: 0}
      m_TileFlags: 1
      m_ColliderType: 1
  - first: {x: 4, y: -10, z: 0}
    second:
      m_TileIndex: 69
      m_TileSpriteIndex: 69
      m_TileMatrixIndex: 0
      m_TileColorIndex: 0
      m_ObjectToInstantiate: {fileID: 0}
      m_TileFlags: 1
      m_ColliderType: 1
  - first: {x: -2, y: -9, z: 0}
    second:
      m_TileIndex: 56
      m_TileSpriteIndex: 56
      m_TileMatrixIndex: 0
      m_TileColorIndex: 0
      m_ObjectToInstantiate: {fileID: 0}
      m_TileFlags: 1
      m_ColliderType: 1
  - first: {x: -1, y: -9, z: 0}
    second:
      m_TileIndex: 57
      m_TileSpriteIndex: 57
      m_TileMatrixIndex: 0
      m_TileColorIndex: 0
      m_ObjectToInstantiate: {fileID: 0}
      m_TileFlags: 1
      m_ColliderType: 1
  - first: {x: 0, y: -9, z: 0}
    second:
      m_TileIndex: 58
      m_TileSpriteIndex: 58
      m_TileMatrixIndex: 0
      m_TileColorIndex: 0
      m_ObjectToInstantiate: {fileID: 0}
      m_TileFlags: 1
      m_ColliderType: 1
  - first: {x: 1, y: -9, z: 0}
    second:
      m_TileIndex: 59
      m_TileSpriteIndex: 59
      m_TileMatrixIndex: 0
      m_TileColorIndex: 0
      m_ObjectToInstantiate: {fileID: 0}
      m_TileFlags: 1
      m_ColliderType: 1
  - first: {x: 2, y: -9, z: 0}
    second:
      m_TileIndex: 60
      m_TileSpriteIndex: 60
      m_TileMatrixIndex: 0
      m_TileColorIndex: 0
      m_ObjectToInstantiate: {fileID: 0}
      m_TileFlags: 1
      m_ColliderType: 1
  - first: {x: 3, y: -9, z: 0}
    second:
      m_TileIndex: 61
      m_TileSpriteIndex: 61
      m_TileMatrixIndex: 0
      m_TileColorIndex: 0
      m_ObjectToInstantiate: {fileID: 0}
      m_TileFlags: 1
      m_ColliderType: 1
  - first: {x: 4, y: -9, z: 0}
    second:
      m_TileIndex: 62
      m_TileSpriteIndex: 62
      m_TileMatrixIndex: 0
      m_TileColorIndex: 0
      m_ObjectToInstantiate: {fileID: 0}
      m_TileFlags: 1
      m_ColliderType: 1
  - first: {x: -2, y: -8, z: 0}
    second:
      m_TileIndex: 49
      m_TileSpriteIndex: 49
      m_TileMatrixIndex: 0
      m_TileColorIndex: 0
      m_ObjectToInstantiate: {fileID: 0}
      m_TileFlags: 1
      m_ColliderType: 1
  - first: {x: -1, y: -8, z: 0}
    second:
      m_TileIndex: 50
      m_TileSpriteIndex: 50
      m_TileMatrixIndex: 0
      m_TileColorIndex: 0
      m_ObjectToInstantiate: {fileID: 0}
      m_TileFlags: 1
      m_ColliderType: 1
  - first: {x: 0, y: -8, z: 0}
    second:
      m_TileIndex: 51
      m_TileSpriteIndex: 51
      m_TileMatrixIndex: 0
      m_TileColorIndex: 0
      m_ObjectToInstantiate: {fileID: 0}
      m_TileFlags: 1
      m_ColliderType: 1
  - first: {x: 1, y: -8, z: 0}
    second:
      m_TileIndex: 52
      m_TileSpriteIndex: 52
      m_TileMatrixIndex: 0
      m_TileColorIndex: 0
      m_ObjectToInstantiate: {fileID: 0}
      m_TileFlags: 1
      m_ColliderType: 1
  - first: {x: 2, y: -8, z: 0}
    second:
      m_TileIndex: 53
      m_TileSpriteIndex: 53
      m_TileMatrixIndex: 0
      m_TileColorIndex: 0
      m_ObjectToInstantiate: {fileID: 0}
      m_TileFlags: 1
      m_ColliderType: 1
  - first: {x: 3, y: -8, z: 0}
    second:
      m_TileIndex: 54
      m_TileSpriteIndex: 54
      m_TileMatrixIndex: 0
      m_TileColorIndex: 0
      m_ObjectToInstantiate: {fileID: 0}
      m_TileFlags: 1
      m_ColliderType: 1
  - first: {x: 4, y: -8, z: 0}
    second:
      m_TileIndex: 55
      m_TileSpriteIndex: 55
      m_TileMatrixIndex: 0
      m_TileColorIndex: 0
      m_ObjectToInstantiate: {fileID: 0}
      m_TileFlags: 1
      m_ColliderType: 1
  - first: {x: -2, y: -7, z: 0}
    second:
      m_TileIndex: 42
      m_TileSpriteIndex: 42
      m_TileMatrixIndex: 0
      m_TileColorIndex: 0
      m_ObjectToInstantiate: {fileID: 0}
      m_TileFlags: 1
      m_ColliderType: 1
  - first: {x: -1, y: -7, z: 0}
    second:
      m_TileIndex: 43
      m_TileSpriteIndex: 43
      m_TileMatrixIndex: 0
      m_TileColorIndex: 0
      m_ObjectToInstantiate: {fileID: 0}
      m_TileFlags: 1
      m_ColliderType: 1
  - first: {x: 0, y: -7, z: 0}
    second:
      m_TileIndex: 44
      m_TileSpriteIndex: 44
      m_TileMatrixIndex: 0
      m_TileColorIndex: 0
      m_ObjectToInstantiate: {fileID: 0}
      m_TileFlags: 1
      m_ColliderType: 1
  - first: {x: 1, y: -7, z: 0}
    second:
      m_TileIndex: 45
      m_TileSpriteIndex: 45
      m_TileMatrixIndex: 0
      m_TileColorIndex: 0
      m_ObjectToInstantiate: {fileID: 0}
      m_TileFlags: 1
      m_ColliderType: 1
  - first: {x: 2, y: -7, z: 0}
    second:
      m_TileIndex: 46
      m_TileSpriteIndex: 46
      m_TileMatrixIndex: 0
      m_TileColorIndex: 0
      m_ObjectToInstantiate: {fileID: 0}
      m_TileFlags: 1
      m_ColliderType: 1
  - first: {x: 3, y: -7, z: 0}
    second:
      m_TileIndex: 47
      m_TileSpriteIndex: 47
      m_TileMatrixIndex: 0
      m_TileColorIndex: 0
      m_ObjectToInstantiate: {fileID: 0}
      m_TileFlags: 1
      m_ColliderType: 1
  - first: {x: 4, y: -7, z: 0}
    second:
      m_TileIndex: 48
      m_TileSpriteIndex: 48
      m_TileMatrixIndex: 0
      m_TileColorIndex: 0
      m_ObjectToInstantiate: {fileID: 0}
      m_TileFlags: 1
      m_ColliderType: 1
  - first: {x: -2, y: -6, z: 0}
    second:
      m_TileIndex: 35
      m_TileSpriteIndex: 35
      m_TileMatrixIndex: 0
      m_TileColorIndex: 0
      m_ObjectToInstantiate: {fileID: 0}
      m_TileFlags: 1
      m_ColliderType: 1
  - first: {x: -1, y: -6, z: 0}
    second:
      m_TileIndex: 36
      m_TileSpriteIndex: 36
      m_TileMatrixIndex: 0
      m_TileColorIndex: 0
      m_ObjectToInstantiate: {fileID: 0}
      m_TileFlags: 1
      m_ColliderType: 1
  - first: {x: 0, y: -6, z: 0}
    second:
      m_TileIndex: 37
      m_TileSpriteIndex: 37
      m_TileMatrixIndex: 0
      m_TileColorIndex: 0
      m_ObjectToInstantiate: {fileID: 0}
      m_TileFlags: 1
      m_ColliderType: 1
  - first: {x: 1, y: -6, z: 0}
    second:
      m_TileIndex: 38
      m_TileSpriteIndex: 38
      m_TileMatrixIndex: 0
      m_TileColorIndex: 0
      m_ObjectToInstantiate: {fileID: 0}
      m_TileFlags: 1
      m_ColliderType: 1
  - first: {x: 2, y: -6, z: 0}
    second:
      m_TileIndex: 39
      m_TileSpriteIndex: 39
      m_TileMatrixIndex: 0
      m_TileColorIndex: 0
      m_ObjectToInstantiate: {fileID: 0}
      m_TileFlags: 1
      m_ColliderType: 1
  - first: {x: 3, y: -6, z: 0}
    second:
      m_TileIndex: 40
      m_TileSpriteIndex: 40
      m_TileMatrixIndex: 0
      m_TileColorIndex: 0
      m_ObjectToInstantiate: {fileID: 0}
      m_TileFlags: 1
      m_ColliderType: 1
  - first: {x: 4, y: -6, z: 0}
    second:
      m_TileIndex: 41
      m_TileSpriteIndex: 41
      m_TileMatrixIndex: 0
      m_TileColorIndex: 0
      m_ObjectToInstantiate: {fileID: 0}
      m_TileFlags: 1
      m_ColliderType: 1
  - first: {x: -2, y: -5, z: 0}
    second:
      m_TileIndex: 28
      m_TileSpriteIndex: 28
      m_TileMatrixIndex: 0
      m_TileColorIndex: 0
      m_ObjectToInstantiate: {fileID: 0}
      m_TileFlags: 1
      m_ColliderType: 1
  - first: {x: -1, y: -5, z: 0}
    second:
      m_TileIndex: 29
      m_TileSpriteIndex: 29
      m_TileMatrixIndex: 0
      m_TileColorIndex: 0
      m_ObjectToInstantiate: {fileID: 0}
      m_TileFlags: 1
      m_ColliderType: 1
  - first: {x: 0, y: -5, z: 0}
    second:
      m_TileIndex: 30
      m_TileSpriteIndex: 30
      m_TileMatrixIndex: 0
      m_TileColorIndex: 0
      m_ObjectToInstantiate: {fileID: 0}
      m_TileFlags: 1
      m_ColliderType: 1
  - first: {x: 1, y: -5, z: 0}
    second:
      m_TileIndex: 31
      m_TileSpriteIndex: 31
      m_TileMatrixIndex: 0
      m_TileColorIndex: 0
      m_ObjectToInstantiate: {fileID: 0}
      m_TileFlags: 1
      m_ColliderType: 1
  - first: {x: 2, y: -5, z: 0}
    second:
      m_TileIndex: 32
      m_TileSpriteIndex: 32
      m_TileMatrixIndex: 0
      m_TileColorIndex: 0
      m_ObjectToInstantiate: {fileID: 0}
      m_TileFlags: 1
      m_ColliderType: 1
  - first: {x: 3, y: -5, z: 0}
    second:
      m_TileIndex: 33
      m_TileSpriteIndex: 33
      m_TileMatrixIndex: 0
      m_TileColorIndex: 0
      m_ObjectToInstantiate: {fileID: 0}
      m_TileFlags: 1
      m_ColliderType: 1
  - first: {x: 4, y: -5, z: 0}
    second:
      m_TileIndex: 34
      m_TileSpriteIndex: 34
      m_TileMatrixIndex: 0
      m_TileColorIndex: 0
      m_ObjectToInstantiate: {fileID: 0}
      m_TileFlags: 1
      m_ColliderType: 1
  - first: {x: -2, y: -4, z: 0}
    second:
      m_TileIndex: 21
      m_TileSpriteIndex: 21
      m_TileMatrixIndex: 0
      m_TileColorIndex: 0
      m_ObjectToInstantiate: {fileID: 0}
      m_TileFlags: 1
      m_ColliderType: 1
  - first: {x: -1, y: -4, z: 0}
    second:
      m_TileIndex: 22
      m_TileSpriteIndex: 22
      m_TileMatrixIndex: 0
      m_TileColorIndex: 0
      m_ObjectToInstantiate: {fileID: 0}
      m_TileFlags: 1
      m_ColliderType: 1
  - first: {x: 0, y: -4, z: 0}
    second:
      m_TileIndex: 23
      m_TileSpriteIndex: 23
      m_TileMatrixIndex: 0
      m_TileColorIndex: 0
      m_ObjectToInstantiate: {fileID: 0}
      m_TileFlags: 1
      m_ColliderType: 1
  - first: {x: 1, y: -4, z: 0}
    second:
      m_TileIndex: 24
      m_TileSpriteIndex: 24
      m_TileMatrixIndex: 0
      m_TileColorIndex: 0
      m_ObjectToInstantiate: {fileID: 0}
      m_TileFlags: 1
      m_ColliderType: 1
  - first: {x: 2, y: -4, z: 0}
    second:
      m_TileIndex: 25
      m_TileSpriteIndex: 25
      m_TileMatrixIndex: 0
      m_TileColorIndex: 0
      m_ObjectToInstantiate: {fileID: 0}
      m_TileFlags: 1
      m_ColliderType: 1
  - first: {x: 3, y: -4, z: 0}
    second:
      m_TileIndex: 26
      m_TileSpriteIndex: 26
      m_TileMatrixIndex: 0
      m_TileColorIndex: 0
      m_ObjectToInstantiate: {fileID: 0}
      m_TileFlags: 1
      m_ColliderType: 1
  - first: {x: 4, y: -4, z: 0}
    second:
      m_TileIndex: 27
      m_TileSpriteIndex: 27
      m_TileMatrixIndex: 0
      m_TileColorIndex: 0
      m_ObjectToInstantiate: {fileID: 0}
      m_TileFlags: 1
      m_ColliderType: 1
  - first: {x: -2, y: -3, z: 0}
    second:
      m_TileIndex: 14
      m_TileSpriteIndex: 14
      m_TileMatrixIndex: 0
      m_TileColorIndex: 0
      m_ObjectToInstantiate: {fileID: 0}
      m_TileFlags: 1
      m_ColliderType: 1
  - first: {x: -1, y: -3, z: 0}
    second:
      m_TileIndex: 15
      m_TileSpriteIndex: 15
      m_TileMatrixIndex: 0
      m_TileColorIndex: 0
      m_ObjectToInstantiate: {fileID: 0}
      m_TileFlags: 1
      m_ColliderType: 1
  - first: {x: 0, y: -3, z: 0}
    second:
      m_TileIndex: 16
      m_TileSpriteIndex: 16
      m_TileMatrixIndex: 0
      m_TileColorIndex: 0
      m_ObjectToInstantiate: {fileID: 0}
      m_TileFlags: 1
      m_ColliderType: 1
  - first: {x: 1, y: -3, z: 0}
    second:
      m_TileIndex: 17
      m_TileSpriteIndex: 17
      m_TileMatrixIndex: 0
      m_TileColorIndex: 0
      m_ObjectToInstantiate: {fileID: 0}
      m_TileFlags: 1
      m_ColliderType: 1
  - first: {x: 2, y: -3, z: 0}
    second:
      m_TileIndex: 18
      m_TileSpriteIndex: 18
      m_TileMatrixIndex: 0
      m_TileColorIndex: 0
      m_ObjectToInstantiate: {fileID: 0}
      m_TileFlags: 1
      m_ColliderType: 1
  - first: {x: 3, y: -3, z: 0}
    second:
      m_TileIndex: 19
      m_TileSpriteIndex: 19
      m_TileMatrixIndex: 0
      m_TileColorIndex: 0
      m_ObjectToInstantiate: {fileID: 0}
      m_TileFlags: 1
      m_ColliderType: 1
  - first: {x: 4, y: -3, z: 0}
    second:
      m_TileIndex: 20
      m_TileSpriteIndex: 20
      m_TileMatrixIndex: 0
      m_TileColorIndex: 0
      m_ObjectToInstantiate: {fileID: 0}
      m_TileFlags: 1
      m_ColliderType: 1
  - first: {x: -2, y: -2, z: 0}
    second:
      m_TileIndex: 7
      m_TileSpriteIndex: 7
      m_TileMatrixIndex: 0
      m_TileColorIndex: 0
      m_ObjectToInstantiate: {fileID: 0}
      m_TileFlags: 1
      m_ColliderType: 1
  - first: {x: -1, y: -2, z: 0}
    second:
      m_TileIndex: 8
      m_TileSpriteIndex: 8
      m_TileMatrixIndex: 0
      m_TileColorIndex: 0
      m_ObjectToInstantiate: {fileID: 0}
      m_TileFlags: 1
      m_ColliderType: 1
  - first: {x: 0, y: -2, z: 0}
    second:
      m_TileIndex: 9
      m_TileSpriteIndex: 9
      m_TileMatrixIndex: 0
      m_TileColorIndex: 0
      m_ObjectToInstantiate: {fileID: 0}
      m_TileFlags: 1
      m_ColliderType: 1
  - first: {x: 1, y: -2, z: 0}
    second:
      m_TileIndex: 10
      m_TileSpriteIndex: 10
      m_TileMatrixIndex: 0
      m_TileColorIndex: 0
      m_ObjectToInstantiate: {fileID: 0}
      m_TileFlags: 1
      m_ColliderType: 1
  - first: {x: 2, y: -2, z: 0}
    second:
      m_TileIndex: 11
      m_TileSpriteIndex: 11
      m_TileMatrixIndex: 0
      m_TileColorIndex: 0
      m_ObjectToInstantiate: {fileID: 0}
      m_TileFlags: 1
      m_ColliderType: 1
  - first: {x: 3, y: -2, z: 0}
    second:
      m_TileIndex: 12
      m_TileSpriteIndex: 12
      m_TileMatrixIndex: 0
      m_TileColorIndex: 0
      m_ObjectToInstantiate: {fileID: 0}
      m_TileFlags: 1
      m_ColliderType: 1
  - first: {x: 4, y: -2, z: 0}
    second:
      m_TileIndex: 13
      m_TileSpriteIndex: 13
      m_TileMatrixIndex: 0
      m_TileColorIndex: 0
      m_ObjectToInstantiate: {fileID: 0}
      m_TileFlags: 1
      m_ColliderType: 1
  - first: {x: -2, y: -1, z: 0}
    second:
      m_TileIndex: 0
      m_TileSpriteIndex: 0
      m_TileMatrixIndex: 0
      m_TileColorIndex: 0
      m_ObjectToInstantiate: {fileID: 0}
      m_TileFlags: 1
      m_ColliderType: 1
  - first: {x: -1, y: -1, z: 0}
    second:
      m_TileIndex: 1
      m_TileSpriteIndex: 1
      m_TileMatrixIndex: 0
      m_TileColorIndex: 0
      m_ObjectToInstantiate: {fileID: 0}
      m_TileFlags: 1
      m_ColliderType: 1
  - first: {x: 0, y: -1, z: 0}
    second:
      m_TileIndex: 2
      m_TileSpriteIndex: 2
      m_TileMatrixIndex: 0
      m_TileColorIndex: 0
      m_ObjectToInstantiate: {fileID: 0}
      m_TileFlags: 1
      m_ColliderType: 1
  - first: {x: 1, y: -1, z: 0}
    second:
      m_TileIndex: 3
      m_TileSpriteIndex: 3
      m_TileMatrixIndex: 0
      m_TileColorIndex: 0
      m_ObjectToInstantiate: {fileID: 0}
      m_TileFlags: 1
      m_ColliderType: 1
  - first: {x: 2, y: -1, z: 0}
    second:
      m_TileIndex: 4
      m_TileSpriteIndex: 4
      m_TileMatrixIndex: 0
      m_TileColorIndex: 0
      m_ObjectToInstantiate: {fileID: 0}
      m_TileFlags: 1
      m_ColliderType: 1
  - first: {x: 3, y: -1, z: 0}
    second:
      m_TileIndex: 5
      m_TileSpriteIndex: 5
      m_TileMatrixIndex: 0
      m_TileColorIndex: 0
      m_ObjectToInstantiate: {fileID: 0}
      m_TileFlags: 1
      m_ColliderType: 1
  - first: {x: 4, y: -1, z: 0}
    second:
      m_TileIndex: 6
      m_TileSpriteIndex: 6
      m_TileMatrixIndex: 0
      m_TileColorIndex: 0
      m_ObjectToInstantiate: {fileID: 0}
      m_TileFlags: 1
      m_ColliderType: 1
  m_AnimatedTiles: {}
  m_TileAssetArray:
  - m_RefCount: 1
    m_Data: {fileID: 11400000, guid: ccd0d942a9ee6b24093ccd3b018856c7, type: 2}
  - m_RefCount: 1
    m_Data: {fileID: 11400000, guid: d15f56e3c4233704dae80415c5d8d554, type: 2}
  - m_RefCount: 1
    m_Data: {fileID: 11400000, guid: be0a40f08312609458b82c53bd475fd2, type: 2}
  - m_RefCount: 1
    m_Data: {fileID: 11400000, guid: ac6bf5588895ecb4bb7bdc66f3a85eeb, type: 2}
  - m_RefCount: 1
    m_Data: {fileID: 11400000, guid: 8913b327848302b429a2ddc62a46d15a, type: 2}
  - m_RefCount: 1
    m_Data: {fileID: 11400000, guid: 3cc48d9f3df96fb41892075dac1f8807, type: 2}
  - m_RefCount: 1
    m_Data: {fileID: 11400000, guid: aa617f4f3bc98f640aea7f0ba5d8cefc, type: 2}
  - m_RefCount: 1
    m_Data: {fileID: 11400000, guid: 87e9e6b75f5f05240a1b5035d7c91f92, type: 2}
  - m_RefCount: 1
    m_Data: {fileID: 11400000, guid: 2a2ffbede4405a44e91e039b59db2ea8, type: 2}
  - m_RefCount: 1
    m_Data: {fileID: 11400000, guid: 85c31c06ae3f7f740a6bfa8175fbf878, type: 2}
  - m_RefCount: 1
    m_Data: {fileID: 11400000, guid: 44cb77e37dedf9b4ca6fdb80d16a15d9, type: 2}
  - m_RefCount: 1
    m_Data: {fileID: 11400000, guid: 7f8091611c2408e458b08286d7973a6c, type: 2}
  - m_RefCount: 1
    m_Data: {fileID: 11400000, guid: 37b804194aee0a14192143cd44a54589, type: 2}
  - m_RefCount: 1
    m_Data: {fileID: 11400000, guid: a3eaa257fd6a6774fa8863ea0d2937dd, type: 2}
  - m_RefCount: 1
    m_Data: {fileID: 11400000, guid: 24c8d5e23b7f572438f7d3f77cc3c597, type: 2}
  - m_RefCount: 1
    m_Data: {fileID: 11400000, guid: 819ee146abdb6c44cb533c5df4ba0bdb, type: 2}
  - m_RefCount: 1
    m_Data: {fileID: 11400000, guid: b5be1674207704d4c9465d9f08e846be, type: 2}
  - m_RefCount: 1
    m_Data: {fileID: 11400000, guid: 0622807f655874544a12af42be295ced, type: 2}
  - m_RefCount: 1
    m_Data: {fileID: 11400000, guid: 7875957f2541bb14180db879c1446349, type: 2}
  - m_RefCount: 1
    m_Data: {fileID: 11400000, guid: 1d76dd294fe21f24b92892c6f48f752d, type: 2}
  - m_RefCount: 1
    m_Data: {fileID: 11400000, guid: be18bc61a28a3e848b437aae459eacf7, type: 2}
  - m_RefCount: 1
    m_Data: {fileID: 11400000, guid: 04c4ec9455d062f44900132bdc1f8b8a, type: 2}
  - m_RefCount: 1
    m_Data: {fileID: 11400000, guid: 7988116e418da3b4f94ac00d8b1c6093, type: 2}
  - m_RefCount: 1
    m_Data: {fileID: 11400000, guid: ac3e01ccd90143740b1650782a7f5838, type: 2}
  - m_RefCount: 1
    m_Data: {fileID: 11400000, guid: a429d41dec1f7fa46b982453dacf2bf5, type: 2}
  - m_RefCount: 1
    m_Data: {fileID: 11400000, guid: 34c30d3218c4fb4488cd51888dab9b68, type: 2}
  - m_RefCount: 1
    m_Data: {fileID: 11400000, guid: e42dced6cc8620645b683dbab55ae66d, type: 2}
  - m_RefCount: 1
    m_Data: {fileID: 11400000, guid: 6f2a2dc0bfb5dcd47b2d05ddad0be56f, type: 2}
  - m_RefCount: 1
    m_Data: {fileID: 11400000, guid: 94155e872b102de4fb755bd6ba5ea83f, type: 2}
  - m_RefCount: 1
    m_Data: {fileID: 11400000, guid: 65075a45bbf1c9d4c99ae1a3f9e5fd12, type: 2}
  - m_RefCount: 1
    m_Data: {fileID: 11400000, guid: e7da0e0ed2948db4792e4655075c258e, type: 2}
  - m_RefCount: 1
    m_Data: {fileID: 11400000, guid: 9e88c6158ad0ec44e894cd6ebebc43e8, type: 2}
  - m_RefCount: 1
    m_Data: {fileID: 11400000, guid: d225e767a6e44804584bd3cfc7adb449, type: 2}
  - m_RefCount: 1
    m_Data: {fileID: 11400000, guid: a4f6f7481c32b85419a5111ad8fc76cf, type: 2}
  - m_RefCount: 1
    m_Data: {fileID: 11400000, guid: 41fa873d46c23f247a81761124359010, type: 2}
  - m_RefCount: 1
    m_Data: {fileID: 11400000, guid: 62033e53c966f0e42abd7d741c978305, type: 2}
  - m_RefCount: 1
    m_Data: {fileID: 11400000, guid: 8bd4d06bf9b4dc842aa697a2b5ef6ea1, type: 2}
  - m_RefCount: 1
    m_Data: {fileID: 11400000, guid: ca1a4d72b25c3674ab13b2519bf4059c, type: 2}
  - m_RefCount: 1
    m_Data: {fileID: 11400000, guid: c92386efd40e65f4789d2b721ab85532, type: 2}
  - m_RefCount: 1
    m_Data: {fileID: 11400000, guid: e5a2a4fa451d8ce48a7683697013bbcf, type: 2}
  - m_RefCount: 1
    m_Data: {fileID: 11400000, guid: 3e0afaef282e94646b5a7d8089d80911, type: 2}
  - m_RefCount: 1
    m_Data: {fileID: 11400000, guid: d3e77f0ef7d7808428cd5048e1274fe2, type: 2}
  - m_RefCount: 1
    m_Data: {fileID: 11400000, guid: 48f1b0fb7bee25a479b564e4dff7de1d, type: 2}
  - m_RefCount: 1
    m_Data: {fileID: 11400000, guid: 636bdc27f3cb96548823847bf2555d90, type: 2}
  - m_RefCount: 1
    m_Data: {fileID: 11400000, guid: a9b23ba203b155e419ee2d9bbc2fcb10, type: 2}
  - m_RefCount: 1
    m_Data: {fileID: 11400000, guid: 63e68fb484f23b64298b271a5ea81768, type: 2}
  - m_RefCount: 1
    m_Data: {fileID: 11400000, guid: 74b89841c9b8707478007a6e7c9d10aa, type: 2}
  - m_RefCount: 1
    m_Data: {fileID: 11400000, guid: 7ba55f4759669c141b282d2bbfbbe623, type: 2}
  - m_RefCount: 1
    m_Data: {fileID: 11400000, guid: 5bdde50c7e382404588cd5bcc289ad27, type: 2}
  - m_RefCount: 1
    m_Data: {fileID: 11400000, guid: 693ed23c9b59f3f41ab917cefac9eb37, type: 2}
  - m_RefCount: 1
    m_Data: {fileID: 11400000, guid: 2aebd0661abeba646a20b090ec215ac1, type: 2}
  - m_RefCount: 1
    m_Data: {fileID: 11400000, guid: 537cd53740e127b48b94b25b9a8ef4ee, type: 2}
  - m_RefCount: 1
    m_Data: {fileID: 11400000, guid: 9bfb42fe7b981f7459b412ad6248720b, type: 2}
  - m_RefCount: 1
    m_Data: {fileID: 11400000, guid: e3a5c897f84a0d5408dcdf7141f982d7, type: 2}
  - m_RefCount: 1
    m_Data: {fileID: 11400000, guid: 43967e4af38b9eb498f37d07b5a31542, type: 2}
  - m_RefCount: 1
    m_Data: {fileID: 11400000, guid: 643c0bd156f290c49bcbac7b185e626d, type: 2}
  - m_RefCount: 1
    m_Data: {fileID: 11400000, guid: 2e50f906dfe0d6d428e7f816ea572810, type: 2}
  - m_RefCount: 1
    m_Data: {fileID: 11400000, guid: eafc749bf1360f84db25a75323983364, type: 2}
  - m_RefCount: 1
    m_Data: {fileID: 11400000, guid: b01a2acbd55d5b6438753b424239a40c, type: 2}
  - m_RefCount: 1
    m_Data: {fileID: 11400000, guid: fc39d0f40cbdac4469daee076f05f633, type: 2}
  - m_RefCount: 1
    m_Data: {fileID: 11400000, guid: 085dd7058e536d74da724701d65ad946, type: 2}
  - m_RefCount: 1
    m_Data: {fileID: 11400000, guid: 52aac9abe0bb3c348b0f55a1974b881e, type: 2}
  - m_RefCount: 1
    m_Data: {fileID: 11400000, guid: 3e55adcf12082254ab4b6d923c5204eb, type: 2}
  - m_RefCount: 1
    m_Data: {fileID: 11400000, guid: 6e5743a82eac7684c865145234c3184d, type: 2}
  - m_RefCount: 1
    m_Data: {fileID: 11400000, guid: ffdcd4d8824607f4bafc1c339f809efe, type: 2}
  - m_RefCount: 1
    m_Data: {fileID: 11400000, guid: f118d3602ee6e0842a86175b7cd2a29a, type: 2}
  - m_RefCount: 1
    m_Data: {fileID: 11400000, guid: ce59ddd1e4ccbb94cab5821f2dfb6e2f, type: 2}
  - m_RefCount: 1
    m_Data: {fileID: 11400000, guid: 2da459a251edcb94c868f8d9a7aacade, type: 2}
  - m_RefCount: 1
    m_Data: {fileID: 11400000, guid: d40ecaedb52267a4ea27f5c5e774fce1, type: 2}
  - m_RefCount: 1
    m_Data: {fileID: 11400000, guid: baa951607fab10a43b244ef2a9692745, type: 2}
  m_TileSpriteArray:
  - m_RefCount: 1
    m_Data: {fileID: -4373184736405950995, guid: 74c3e58a261ea5a4dbc1e7b5810b7917,
      type: 3}
  - m_RefCount: 1
    m_Data: {fileID: 4158732434352698325, guid: 74c3e58a261ea5a4dbc1e7b5810b7917,
      type: 3}
  - m_RefCount: 1
    m_Data: {fileID: 4341242654334979365, guid: 74c3e58a261ea5a4dbc1e7b5810b7917,
      type: 3}
  - m_RefCount: 1
    m_Data: {fileID: 1903813881350671106, guid: 74c3e58a261ea5a4dbc1e7b5810b7917,
      type: 3}
  - m_RefCount: 1
    m_Data: {fileID: 8666153195878230358, guid: 74c3e58a261ea5a4dbc1e7b5810b7917,
      type: 3}
  - m_RefCount: 1
    m_Data: {fileID: 4633350270274512122, guid: 74c3e58a261ea5a4dbc1e7b5810b7917,
      type: 3}
  - m_RefCount: 1
    m_Data: {fileID: -3085053661432295534, guid: 74c3e58a261ea5a4dbc1e7b5810b7917,
      type: 3}
  - m_RefCount: 1
    m_Data: {fileID: 601623144054556460, guid: 74c3e58a261ea5a4dbc1e7b5810b7917, type: 3}
  - m_RefCount: 1
    m_Data: {fileID: 7700971350373784707, guid: 74c3e58a261ea5a4dbc1e7b5810b7917,
      type: 3}
  - m_RefCount: 1
    m_Data: {fileID: 6482533309307412173, guid: 74c3e58a261ea5a4dbc1e7b5810b7917,
      type: 3}
  - m_RefCount: 1
    m_Data: {fileID: -6716143812497719498, guid: 74c3e58a261ea5a4dbc1e7b5810b7917,
      type: 3}
  - m_RefCount: 1
    m_Data: {fileID: -238930871357459764, guid: 74c3e58a261ea5a4dbc1e7b5810b7917,
      type: 3}
  - m_RefCount: 1
    m_Data: {fileID: 1546552405686873150, guid: 74c3e58a261ea5a4dbc1e7b5810b7917,
      type: 3}
  - m_RefCount: 1
    m_Data: {fileID: -2362380025853997434, guid: 74c3e58a261ea5a4dbc1e7b5810b7917,
      type: 3}
  - m_RefCount: 1
    m_Data: {fileID: -368596763120020550, guid: 74c3e58a261ea5a4dbc1e7b5810b7917,
      type: 3}
  - m_RefCount: 1
    m_Data: {fileID: 1338063624304658472, guid: 74c3e58a261ea5a4dbc1e7b5810b7917,
      type: 3}
  - m_RefCount: 1
    m_Data: {fileID: 2509881989800874174, guid: 74c3e58a261ea5a4dbc1e7b5810b7917,
      type: 3}
  - m_RefCount: 1
    m_Data: {fileID: -737837024687671454, guid: 74c3e58a261ea5a4dbc1e7b5810b7917,
      type: 3}
  - m_RefCount: 1
    m_Data: {fileID: 3038923913770714274, guid: 74c3e58a261ea5a4dbc1e7b5810b7917,
      type: 3}
  - m_RefCount: 1
    m_Data: {fileID: -968770383251345080, guid: 74c3e58a261ea5a4dbc1e7b5810b7917,
      type: 3}
  - m_RefCount: 1
    m_Data: {fileID: 6735105382651259636, guid: 74c3e58a261ea5a4dbc1e7b5810b7917,
      type: 3}
  - m_RefCount: 1
    m_Data: {fileID: 6433854208847190039, guid: 74c3e58a261ea5a4dbc1e7b5810b7917,
      type: 3}
  - m_RefCount: 1
    m_Data: {fileID: 1492911798537794108, guid: 74c3e58a261ea5a4dbc1e7b5810b7917,
      type: 3}
  - m_RefCount: 1
    m_Data: {fileID: 5048416880140299565, guid: 74c3e58a261ea5a4dbc1e7b5810b7917,
      type: 3}
  - m_RefCount: 1
    m_Data: {fileID: 7641892208429834689, guid: 74c3e58a261ea5a4dbc1e7b5810b7917,
      type: 3}
  - m_RefCount: 1
    m_Data: {fileID: -800442207075965033, guid: 74c3e58a261ea5a4dbc1e7b5810b7917,
      type: 3}
  - m_RefCount: 1
    m_Data: {fileID: 7649971556135936819, guid: 74c3e58a261ea5a4dbc1e7b5810b7917,
      type: 3}
  - m_RefCount: 1
    m_Data: {fileID: 4870877652962855886, guid: 74c3e58a261ea5a4dbc1e7b5810b7917,
      type: 3}
  - m_RefCount: 1
    m_Data: {fileID: -435046055405278703, guid: 74c3e58a261ea5a4dbc1e7b5810b7917,
      type: 3}
  - m_RefCount: 1
    m_Data: {fileID: 4275265726231819746, guid: 74c3e58a261ea5a4dbc1e7b5810b7917,
      type: 3}
  - m_RefCount: 1
    m_Data: {fileID: -9055321195671008437, guid: 74c3e58a261ea5a4dbc1e7b5810b7917,
      type: 3}
  - m_RefCount: 1
    m_Data: {fileID: 8383685822998553962, guid: 74c3e58a261ea5a4dbc1e7b5810b7917,
      type: 3}
  - m_RefCount: 1
    m_Data: {fileID: -5034969528391634466, guid: 74c3e58a261ea5a4dbc1e7b5810b7917,
      type: 3}
  - m_RefCount: 1
    m_Data: {fileID: 2551854644190722719, guid: 74c3e58a261ea5a4dbc1e7b5810b7917,
      type: 3}
  - m_RefCount: 1
    m_Data: {fileID: -4943970475600233264, guid: 74c3e58a261ea5a4dbc1e7b5810b7917,
      type: 3}
  - m_RefCount: 1
    m_Data: {fileID: -2987767069438478369, guid: 74c3e58a261ea5a4dbc1e7b5810b7917,
      type: 3}
  - m_RefCount: 1
    m_Data: {fileID: 291018983614156155, guid: 74c3e58a261ea5a4dbc1e7b5810b7917, type: 3}
  - m_RefCount: 1
    m_Data: {fileID: 3750309937199576963, guid: 74c3e58a261ea5a4dbc1e7b5810b7917,
      type: 3}
  - m_RefCount: 1
    m_Data: {fileID: 5602807671860324422, guid: 74c3e58a261ea5a4dbc1e7b5810b7917,
      type: 3}
  - m_RefCount: 1
    m_Data: {fileID: -4753789512137068514, guid: 74c3e58a261ea5a4dbc1e7b5810b7917,
      type: 3}
  - m_RefCount: 1
    m_Data: {fileID: -3056482181439526140, guid: 74c3e58a261ea5a4dbc1e7b5810b7917,
      type: 3}
  - m_RefCount: 1
    m_Data: {fileID: -6685596499255760803, guid: 74c3e58a261ea5a4dbc1e7b5810b7917,
      type: 3}
  - m_RefCount: 1
    m_Data: {fileID: -1098774980844157507, guid: 74c3e58a261ea5a4dbc1e7b5810b7917,
      type: 3}
  - m_RefCount: 1
    m_Data: {fileID: -7549047806516835191, guid: 74c3e58a261ea5a4dbc1e7b5810b7917,
      type: 3}
  - m_RefCount: 1
    m_Data: {fileID: 7923879727469168163, guid: 74c3e58a261ea5a4dbc1e7b5810b7917,
      type: 3}
  - m_RefCount: 1
    m_Data: {fileID: 384148847483732694, guid: 74c3e58a261ea5a4dbc1e7b5810b7917, type: 3}
  - m_RefCount: 1
    m_Data: {fileID: 9152501972413254891, guid: 74c3e58a261ea5a4dbc1e7b5810b7917,
      type: 3}
  - m_RefCount: 1
    m_Data: {fileID: -71610273293795249, guid: 74c3e58a261ea5a4dbc1e7b5810b7917, type: 3}
  - m_RefCount: 1
    m_Data: {fileID: -2293774143102967410, guid: 74c3e58a261ea5a4dbc1e7b5810b7917,
      type: 3}
  - m_RefCount: 1
    m_Data: {fileID: -6512208610414713851, guid: 74c3e58a261ea5a4dbc1e7b5810b7917,
      type: 3}
  - m_RefCount: 1
    m_Data: {fileID: 461872368936019651, guid: 74c3e58a261ea5a4dbc1e7b5810b7917, type: 3}
  - m_RefCount: 1
    m_Data: {fileID: 252377652158392065, guid: 74c3e58a261ea5a4dbc1e7b5810b7917, type: 3}
  - m_RefCount: 1
    m_Data: {fileID: 8268456416014038034, guid: 74c3e58a261ea5a4dbc1e7b5810b7917,
      type: 3}
  - m_RefCount: 1
    m_Data: {fileID: 2474841612100836845, guid: 74c3e58a261ea5a4dbc1e7b5810b7917,
      type: 3}
  - m_RefCount: 1
    m_Data: {fileID: 445852485584619867, guid: 74c3e58a261ea5a4dbc1e7b5810b7917, type: 3}
  - m_RefCount: 1
    m_Data: {fileID: 6562677597701442729, guid: 74c3e58a261ea5a4dbc1e7b5810b7917,
      type: 3}
  - m_RefCount: 1
    m_Data: {fileID: -3274478132227461676, guid: 74c3e58a261ea5a4dbc1e7b5810b7917,
      type: 3}
  - m_RefCount: 1
    m_Data: {fileID: -2068269053406417002, guid: 74c3e58a261ea5a4dbc1e7b5810b7917,
      type: 3}
  - m_RefCount: 1
    m_Data: {fileID: -564367763420502088, guid: 74c3e58a261ea5a4dbc1e7b5810b7917,
      type: 3}
  - m_RefCount: 1
    m_Data: {fileID: 4680263556727268626, guid: 74c3e58a261ea5a4dbc1e7b5810b7917,
      type: 3}
  - m_RefCount: 1
    m_Data: {fileID: 6270759088016066889, guid: 74c3e58a261ea5a4dbc1e7b5810b7917,
      type: 3}
  - m_RefCount: 1
    m_Data: {fileID: 4313418510426007440, guid: 74c3e58a261ea5a4dbc1e7b5810b7917,
      type: 3}
  - m_RefCount: 1
    m_Data: {fileID: -2447310767808308064, guid: 74c3e58a261ea5a4dbc1e7b5810b7917,
      type: 3}
  - m_RefCount: 1
    m_Data: {fileID: 1592534341640542477, guid: 74c3e58a261ea5a4dbc1e7b5810b7917,
      type: 3}
  - m_RefCount: 1
    m_Data: {fileID: -5165232216242652117, guid: 74c3e58a261ea5a4dbc1e7b5810b7917,
      type: 3}
  - m_RefCount: 1
    m_Data: {fileID: 4848861171975894756, guid: 74c3e58a261ea5a4dbc1e7b5810b7917,
      type: 3}
  - m_RefCount: 1
    m_Data: {fileID: 258367513055578765, guid: 74c3e58a261ea5a4dbc1e7b5810b7917, type: 3}
  - m_RefCount: 1
    m_Data: {fileID: -1989760086436585257, guid: 74c3e58a261ea5a4dbc1e7b5810b7917,
      type: 3}
  - m_RefCount: 1
    m_Data: {fileID: 6620005761863790814, guid: 74c3e58a261ea5a4dbc1e7b5810b7917,
      type: 3}
  - m_RefCount: 1
    m_Data: {fileID: -549093599289225742, guid: 74c3e58a261ea5a4dbc1e7b5810b7917,
      type: 3}
  m_TileMatrixArray:
  - m_RefCount: 70
    m_Data:
      e00: 1
      e01: 0
      e02: 0
      e03: 0
      e10: 0
      e11: 1
      e12: 0
      e13: 0
      e20: 0
      e21: 0
      e22: 1
      e23: 0
      e30: 0
      e31: 0
      e32: 0
      e33: 1
  m_TileColorArray:
  - m_RefCount: 70
    m_Data: {r: 1, g: 1, b: 1, a: 1}
  m_AnimationFrameRate: 1
  m_Color: {r: 1, g: 1, b: 1, a: 1}
  m_Origin: {x: -2, y: -10, z: 0}
  m_Size: {x: 7, y: 10, z: 1}
  m_TileAnchor: {x: 0.5, y: 0.5, z: 0}
  m_TileOrientation: 0
  m_TileOrientationMatrix:
    e00: 1
    e01: 0
    e02: 0
    e03: 0
    e10: 0
    e11: 1
    e12: 0
    e13: 0
    e20: 0
    e21: 0
    e22: 1
    e23: 0
    e30: 0
    e31: 0
    e32: 0
    e33: 1
--- !u!483693784 &2048104663951810763
TilemapRenderer:
  m_ObjectHideFlags: 0
  m_CorrespondingSourceObject: {fileID: 0}
  m_PrefabInstance: {fileID: 0}
  m_PrefabAsset: {fileID: 0}
  m_GameObject: {fileID: 8235977834838167665}
  m_Enabled: 0
  m_CastShadows: 0
  m_ReceiveShadows: 0
  m_DynamicOccludee: 0
  m_MotionVectors: 1
  m_LightProbeUsage: 0
  m_ReflectionProbeUsage: 0
  m_RenderingLayerMask: 1
  m_RendererPriority: 0
  m_Materials:
  - {fileID: 10754, guid: 0000000000000000f000000000000000, type: 0}
  m_StaticBatchInfo:
    firstSubMesh: 0
    subMeshCount: 0
  m_StaticBatchRoot: {fileID: 0}
  m_ProbeAnchor: {fileID: 0}
  m_LightProbeVolumeOverride: {fileID: 0}
  m_ScaleInLightmap: 1
  m_PreserveUVs: 0
  m_IgnoreNormalsForChartDetection: 0
  m_ImportantGI: 0
  m_StitchLightmapSeams: 1
  m_SelectedEditorRenderState: 0
  m_MinimumChartSize: 4
  m_AutoUVMaxDistance: 0.5
  m_AutoUVMaxAngle: 89
  m_LightmapParameters: {fileID: 0}
  m_SortingLayerID: 0
  m_SortingLayer: 0
  m_SortingOrder: 0
  m_ChunkSize: {x: 32, y: 32, z: 32}
  m_ChunkCullingBounds: {x: 0, y: 0, z: 0}
  m_MaxChunkCount: 16
  m_MaxFrameAge: 16
  m_SortOrder: 0
  m_Mode: 0
  m_DetectChunkCullingBounds: 0
  m_MaskInteraction: 0
--- !u!114 &-8363184154034734505
MonoBehaviour:
  m_ObjectHideFlags: 0
  m_CorrespondingSourceObject: {fileID: 0}
  m_PrefabInstance: {fileID: 0}
  m_PrefabAsset: {fileID: 0}
  m_GameObject: {fileID: 0}
  m_Enabled: 1
  m_EditorHideFlags: 0
  m_Script: {fileID: 12395, guid: 0000000000000000e000000000000000, type: 0}
  m_Name: Palette Settings
  m_EditorClassIdentifier: 
  cellSizing: 0
