%YAML 1.1
%TAG !u! tag:unity3d.com,2011:
--- !u!1045 &1
EditorBuildSettings:
  m_ObjectHideFlags: 0
  serializedVersion: 2
  m_Scenes:
  - enabled: 1
    path: Assets/Scenes/startScreen.unity
    guid: 64db27d7db3f9c54180d361ca792d7a6
  - enabled: 1
    path: Assets/Scenes/gameplay.unity
    guid: 2cda990e2423bbf4892e6590ba056729
  - enabled: 1
    path: Assets/Scenes/gameOver.unity
    guid: b5a25c8e2a0690f4794f1a38a7147e7a
  m_configObjects: {}
